<?xml version="1.0" encoding="utf-8"?>
<!-- Generator: Adobe Illustrator 24.0.0, SVG Export Plug-In . SVG Version: 6.00 Build 0)  -->
<svg version="1.1" id="Layer_1" xmlns="http://www.w3.org/2000/svg" xmlns:xlink="http://www.w3.org/1999/xlink" x="0px" y="0px"
	 viewBox="0 0 167.5 161.1" style="enable-background:new 0 0 167.5 161.1;" xml:space="preserve">
<style type="text/css">
	.st0{fill:#FFFFFF;}
	.st1{fill:none;stroke:#343433;stroke-width:3.6;stroke-linecap:round;stroke-linejoin:round;stroke-miterlimit:10;}
</style>
<circle class="st0" cx="85.5" cy="79.7" r="74.3"/>
<g>
	<path class="st1" d="M95.9,78.2c0.6,3.2,0.5,6.7,1.9,9.3"/>
	<path class="st1" d="M71,87.5c1.4-2.6,1.3-6.1,2-9.2"/>
	<path class="st1" d="M129.4,125c-0.9-10.7-2.7-18.4-3.9-22.3c-0.8-2.4-2.6-4.4-4.9-5.4l-22.7-9.8L84.4,97.8l7.2,6.9l0,0l0,0
		l12.6-14.3"/>
	<path class="st1" d="M39.5,125c0.9-10.7,2.7-18.4,3.9-22.3c0.8-2.4,2.6-4.4,4.9-5.4L71,87.5l13.4,10.2l-7.2,6.9l0,0l0,0L64.5,90.3"
		/>
	<g>
		<path class="st1" d="M61.5,54.1c-0.1-2.2-0.2-7.4-0.3-9.1c0-6,1.6-18.3,13.2-18.3c3.7,0,2.7-2.4,9.8-2.4
			c21.7,0,23.5,14.1,23.5,20.8c-0.2,1.6-0.3,6.7-0.3,9.2"/>
		<path class="st1" d="M84.4,82.6c1.2,0,1.9-0.1,2.8-0.2c0.3,0,0.4-0.1,0.4-0.1c2.1-0.3,3.8-0.6,5.5-1.8c0.9-0.7,1.9-1.5,2.7-2.3
			c2.6-2.4,5-5.2,6.2-7.6l2-4.6c0.2-0.5,0.5-0.9,0.8-1.2c3.3-2.9,5.5-9.5,1.8-11.2c0,0-1.5,0.8-2.7-0.8c-0.6-0.9-1.4-2.2-1.8-4
			c-0.1-0.4-0.5-0.6-0.8-0.6c-14,2-24.7-4.3-28.2-6.9c-0.3-0.2-0.7-0.3-1-0.2c-0.4,0.1-0.7,0.3-0.8,0.7c-0.3,1.6-0.7,2.5-1.2,3.9
			c-1.2,3.4-2.7,5.8-4.9,8c-1.2,1.2-2.7-0.1-2.7-0.1c-3.7,1.7-1.5,8.3,1.8,11.2c0.4,0.3,0.6,0.7,0.8,1.2l1.8,4.7
			c1.3,2.4,3.7,5.2,6.2,7.6c0.9,0.8,1.8,1.6,2.7,2.3c1.7,1.3,3.4,1.5,5.5,1.8c0,0,0.2,0,0.4,0.1C82.6,82.5,83.2,82.6,84.4,82.6"/>
	</g>
</g>
</svg>
