<?xml version="1.0" encoding="utf-8"?>
<!-- Generator: Adobe Illustrator 24.0.0, SVG Export Plug-In . SVG Version: 6.00 Build 0)  -->
<svg version="1.1" id="Layer_1" xmlns="http://www.w3.org/2000/svg" xmlns:xlink="http://www.w3.org/1999/xlink" x="0px" y="0px"
	 viewBox="0 0 449 117" style="enable-background:new 0 0 449 117;" xml:space="preserve">
<style type="text/css">
	.st0{fill:none;stroke:#818285;stroke-width:2.4;stroke-miterlimit:10;}
	.st1{fill:#FFFFFF;}
	.st2{fill:#818285;}
	.st3{fill:none;stroke:#818285;stroke-width:1.8;stroke-linecap:round;stroke-linejoin:round;stroke-miterlimit:10;}
</style>
<path class="st0" d="M418.2,110.6H65c-12.9,0-23.5-10.6-23.5-23.5V28.8C41.5,15.9,52.1,5.3,65,5.3h353.2c12.9,0,23.5,10.6,23.5,23.5
	v58.3C441.6,100.1,431.1,110.6,418.2,110.6z"/>
<rect x="27" y="18.5" class="st1" width="55" height="79.6"/>
<g>
	<path class="st2" d="M123.7,53.1c0,1.9-0.3,3.7-0.9,5.2c-0.6,1.5-1.5,2.8-2.7,3.8s-2.6,1.8-4.3,2.3s-3.7,0.8-6,0.8h-2.9v11.1
		c0,0.2-0.1,0.3-0.2,0.5c-0.1,0.1-0.3,0.3-0.6,0.3c-0.3,0.1-0.6,0.2-1.1,0.2c-0.4,0.1-1,0.1-1.7,0.1s-1.2,0-1.7-0.1
		s-0.8-0.1-1.1-0.2s-0.5-0.2-0.6-0.3s-0.2-0.3-0.2-0.5V45.1c0-0.8,0.2-1.5,0.7-1.9c0.4-0.4,1-0.6,1.7-0.6h8.2c0.8,0,1.6,0,2.3,0.1
		s1.6,0.2,2.7,0.4c1,0.2,2.1,0.6,3.1,1.1c1.1,0.6,2,1.3,2.7,2.1c0.8,0.8,1.3,1.8,1.7,3S123.7,51.7,123.7,53.1z M116.4,53.6
		c0-1.2-0.2-2.2-0.6-3c-0.4-0.8-1-1.4-1.6-1.7s-1.3-0.6-2-0.7s-1.4-0.1-2.1-0.1h-3v11.8h3.2c1.1,0,2.1-0.2,2.8-0.5
		c0.8-0.3,1.4-0.7,1.9-1.3s0.8-1.2,1.1-2C116.3,55.3,116.4,54.5,116.4,53.6z"/>
	<path class="st2" d="M154.9,76.3c0,0.2,0,0.4-0.1,0.5s-0.2,0.2-0.5,0.3c-0.3,0.1-0.7,0.2-1.2,0.2s-1.2,0.1-2.1,0.1
		c-0.8,0-1.3,0-1.8-0.1c-0.4,0-0.8-0.1-1.1-0.2s-0.4-0.2-0.5-0.4s-0.2-0.3-0.3-0.5l-3.1-7.7c-0.4-0.9-0.7-1.7-1.1-2.3
		c-0.4-0.7-0.8-1.2-1.2-1.7s-0.9-0.8-1.5-1s-1.2-0.3-2-0.3h-2.2v13.2c0,0.2-0.1,0.3-0.2,0.5c-0.1,0.1-0.3,0.3-0.6,0.3
		c-0.3,0.1-0.6,0.2-1.1,0.2c-0.4,0.1-1,0.1-1.7,0.1s-1.2,0-1.7-0.1s-0.8-0.1-1.1-0.2s-0.5-0.2-0.6-0.3s-0.2-0.3-0.2-0.5V44.8
		c0-0.8,0.2-1.4,0.6-1.7s0.9-0.5,1.5-0.5h9c0.9,0,1.7,0,2.3,0.1c0.6,0,1.1,0.1,1.6,0.1c1.4,0.2,2.6,0.5,3.8,1
		c1.1,0.5,2.1,1.1,2.8,1.9s1.4,1.7,1.8,2.8c0.4,1.1,0.6,2.3,0.6,3.7c0,1.2-0.1,2.2-0.4,3.2c-0.3,1-0.7,1.8-1.3,2.6s-1.3,1.4-2.1,2
		s-1.8,1-2.9,1.3c0.5,0.2,1,0.6,1.5,0.9c0.5,0.4,0.9,0.8,1.3,1.3c0.4,0.5,0.8,1.1,1.1,1.7s0.7,1.4,1,2.2l2.9,6.8
		c0.3,0.7,0.4,1.2,0.5,1.5C154.9,75.9,154.9,76.2,154.9,76.3z M145.9,52.8c0-1.1-0.3-2.1-0.8-2.9s-1.4-1.3-2.5-1.7
		c-0.4-0.1-0.8-0.2-1.2-0.2c-0.5-0.1-1.1-0.1-1.9-0.1h-3.2v9.8h3.6c1,0,1.9-0.1,2.6-0.4c0.8-0.2,1.4-0.6,1.9-1s0.9-1,1.1-1.6
		C145.7,54.2,145.9,53.6,145.9,52.8z"/>
	<path class="st2" d="M190.8,59.5c0,2.9-0.4,5.4-1.1,7.7c-0.7,2.3-1.8,4.2-3.2,5.8c-1.4,1.6-3.2,2.8-5.2,3.6
		c-2.1,0.8-4.5,1.2-7.2,1.2s-5.1-0.4-7.1-1.1s-3.7-1.8-5-3.2c-1.3-1.4-2.3-3.3-3-5.5s-1-4.9-1-7.9c0-2.8,0.4-5.3,1.1-7.6
		c0.7-2.2,1.8-4.1,3.2-5.7s3.2-2.8,5.2-3.6c2.1-0.8,4.5-1.3,7.2-1.3c2.6,0,4.9,0.3,7,1s3.7,1.8,5,3.2s2.4,3.3,3.1,5.5
		C190.4,53.9,190.8,56.5,190.8,59.5z M183.4,59.9c0-1.8-0.1-3.5-0.4-5c-0.3-1.5-0.8-2.8-1.5-3.8s-1.6-1.9-2.7-2.5
		c-1.1-0.6-2.6-0.9-4.3-0.9s-3.2,0.3-4.3,1c-1.2,0.7-2.1,1.5-2.8,2.6s-1.2,2.4-1.5,3.8c-0.3,1.5-0.4,3-0.4,4.6
		c0,1.9,0.1,3.6,0.4,5.1s0.8,2.8,1.4,3.9c0.7,1.1,1.6,1.9,2.7,2.5c1.1,0.6,2.6,0.8,4.3,0.8s3.2-0.3,4.3-1c1.2-0.6,2.1-1.5,2.8-2.6
		s1.2-2.4,1.5-3.9C183.2,63.1,183.4,61.5,183.4,59.9z"/>
	<path class="st2" d="M216.1,45.5c0,0.5,0,1-0.1,1.4s-0.1,0.7-0.2,0.9c-0.1,0.2-0.2,0.4-0.3,0.5s-0.3,0.2-0.4,0.2h-11.3v9.3h10.6
		c0.2,0,0.3,0,0.4,0.1s0.2,0.2,0.3,0.5c0.1,0.2,0.2,0.5,0.2,0.9s0.1,0.8,0.1,1.3s0,1-0.1,1.3c0,0.4-0.1,0.7-0.2,0.9
		c-0.1,0.2-0.2,0.4-0.3,0.5s-0.3,0.1-0.4,0.1h-10.6v12.9c0,0.2-0.1,0.4-0.2,0.5c-0.1,0.1-0.3,0.3-0.6,0.4s-0.6,0.2-1.1,0.2
		c-0.4,0.1-1,0.1-1.7,0.1s-1.2,0-1.7-0.1s-0.8-0.1-1.1-0.2s-0.5-0.2-0.6-0.4c-0.1-0.1-0.2-0.3-0.2-0.5V44.8c0-0.8,0.2-1.4,0.6-1.7
		c0.4-0.3,0.9-0.5,1.5-0.5H215c0.2,0,0.3,0,0.4,0.1s0.2,0.3,0.3,0.5c0.1,0.2,0.2,0.5,0.2,0.9C216.1,44.5,216.1,44.9,216.1,45.5z"/>
	<path class="st2" d="M242.4,74.5c0,0.5,0,1-0.1,1.3c0,0.3-0.1,0.6-0.2,0.8c-0.1,0.2-0.2,0.4-0.3,0.5c-0.1,0.1-0.3,0.1-0.4,0.1H224
		c-0.6,0-1.1-0.2-1.5-0.5s-0.6-0.9-0.6-1.7V44.8c0-0.8,0.2-1.4,0.6-1.7s0.9-0.5,1.5-0.5h17.3c0.2,0,0.3,0,0.4,0.1s0.2,0.2,0.3,0.5
		c0.1,0.2,0.2,0.5,0.2,0.9c0,0.3,0.1,0.8,0.1,1.3s0,0.9-0.1,1.3s-0.1,0.6-0.2,0.8s-0.2,0.4-0.3,0.5c-0.1,0.1-0.3,0.1-0.4,0.1h-12.4
		v8.5h10.5c0.2,0,0.3,0.1,0.4,0.1c0.1,0.1,0.2,0.2,0.3,0.5s0.2,0.5,0.2,0.8s0.1,0.8,0.1,1.3s0,0.9-0.1,1.3c0,0.3-0.1,0.6-0.2,0.8
		s-0.2,0.4-0.3,0.4c-0.1,0.1-0.3,0.1-0.4,0.1h-10.5v9.8h12.5c0.2,0,0.3,0,0.4,0.1s0.2,0.3,0.3,0.5c0.1,0.2,0.2,0.5,0.2,0.8
		C242.4,73.5,242.4,74,242.4,74.5z"/>
	<path class="st2" d="M268.6,66.8c0,1.8-0.3,3.4-1,4.8s-1.6,2.5-2.8,3.4c-1.2,0.9-2.5,1.6-4.1,2.1s-3.2,0.7-5,0.7
		c-1.2,0-2.3-0.1-3.3-0.3c-1-0.2-1.9-0.4-2.7-0.7s-1.4-0.6-2-0.9c-0.5-0.3-0.9-0.6-1.1-0.8c-0.2-0.2-0.4-0.6-0.5-1S246,73,246,72.2
		c0-0.6,0-1,0.1-1.4s0.1-0.7,0.2-0.9c0.1-0.2,0.2-0.4,0.3-0.5c0.1-0.1,0.3-0.1,0.5-0.1s0.6,0.1,1.1,0.4s1,0.6,1.8,1s1.6,0.7,2.6,1
		s2.1,0.4,3.4,0.4c0.9,0,1.6-0.1,2.3-0.3c0.7-0.2,1.3-0.5,1.7-0.9c0.5-0.4,0.8-0.8,1.1-1.4c0.2-0.6,0.4-1.2,0.4-1.8
		c0-0.8-0.2-1.5-0.6-2c-0.4-0.6-1-1.1-1.7-1.5s-1.5-0.8-2.3-1.2s-1.8-0.8-2.7-1.2c-0.9-0.4-1.8-0.9-2.7-1.5s-1.7-1.2-2.3-2
		c-0.7-0.8-1.2-1.7-1.7-2.7c-0.4-1-0.6-2.3-0.6-3.7c0-1.7,0.3-3.1,0.9-4.4s1.4-2.3,2.5-3.1s2.3-1.5,3.7-1.9c1.4-0.4,2.9-0.6,4.5-0.6
		c0.8,0,1.6,0.1,2.5,0.2s1.6,0.3,2.3,0.5c0.7,0.2,1.3,0.5,1.9,0.7c0.6,0.3,0.9,0.5,1.1,0.7s0.3,0.3,0.4,0.5c0.1,0.1,0.1,0.3,0.2,0.5
		s0.1,0.5,0.1,0.8c0,0.3,0,0.7,0,1.2s0,1,0,1.3s-0.1,0.7-0.1,0.9c-0.1,0.2-0.2,0.4-0.3,0.5c-0.1,0.1-0.3,0.2-0.5,0.2
		s-0.5-0.1-0.9-0.4c-0.4-0.2-1-0.5-1.6-0.8s-1.3-0.6-2.2-0.8c-0.8-0.2-1.7-0.4-2.7-0.4c-0.8,0-1.4,0.1-2,0.3s-1,0.4-1.4,0.8
		s-0.7,0.7-0.9,1.2s-0.3,1-0.3,1.5c0,0.8,0.2,1.4,0.6,2s1,1.1,1.7,1.5s1.5,0.8,2.4,1.2c0.9,0.4,1.8,0.8,2.7,1.2
		c0.9,0.4,1.8,0.9,2.7,1.5s1.7,1.2,2.4,2c0.7,0.8,1.3,1.7,1.7,2.7C268.4,64.2,268.6,65.5,268.6,66.8z"/>
	<path class="st2" d="M294.6,66.8c0,1.8-0.3,3.4-1,4.8s-1.6,2.5-2.8,3.4c-1.2,0.9-2.5,1.6-4.1,2.1s-3.2,0.7-5,0.7
		c-1.2,0-2.3-0.1-3.3-0.3c-1-0.2-1.9-0.4-2.7-0.7s-1.4-0.6-2-0.9c-0.5-0.3-0.9-0.6-1.1-0.8c-0.2-0.2-0.4-0.6-0.5-1S272,73,272,72.2
		c0-0.6,0-1,0.1-1.4s0.1-0.7,0.2-0.9c0.1-0.2,0.2-0.4,0.3-0.5c0.1-0.1,0.3-0.1,0.5-0.1s0.6,0.1,1.1,0.4s1,0.6,1.8,1s1.6,0.7,2.6,1
		s2.1,0.4,3.4,0.4c0.9,0,1.6-0.1,2.3-0.3c0.7-0.2,1.3-0.5,1.7-0.9c0.5-0.4,0.8-0.8,1.1-1.4c0.2-0.6,0.4-1.2,0.4-1.8
		c0-0.8-0.2-1.5-0.6-2c-0.4-0.6-1-1.1-1.7-1.5s-1.5-0.8-2.3-1.2s-1.8-0.8-2.7-1.2c-0.9-0.4-1.8-0.9-2.7-1.5s-1.7-1.2-2.3-2
		c-0.7-0.8-1.2-1.7-1.7-2.7c-0.4-1-0.6-2.3-0.6-3.7c0-1.7,0.3-3.1,0.9-4.4s1.4-2.3,2.5-3.1s2.3-1.5,3.7-1.9c1.4-0.4,2.9-0.6,4.5-0.6
		c0.8,0,1.6,0.1,2.5,0.2s1.6,0.3,2.3,0.5c0.7,0.2,1.3,0.5,1.9,0.7c0.6,0.3,0.9,0.5,1.1,0.7s0.3,0.3,0.4,0.5c0.1,0.1,0.1,0.3,0.2,0.5
		s0.1,0.5,0.1,0.8c0,0.3,0,0.7,0,1.2s0,1,0,1.3s-0.1,0.7-0.1,0.9c-0.1,0.2-0.2,0.4-0.3,0.5c-0.1,0.1-0.3,0.2-0.5,0.2
		s-0.5-0.1-0.9-0.4c-0.4-0.2-1-0.5-1.6-0.8s-1.3-0.6-2.2-0.8c-0.8-0.2-1.7-0.4-2.7-0.4c-0.8,0-1.4,0.1-2,0.3s-1,0.4-1.4,0.8
		s-0.7,0.7-0.9,1.2s-0.3,1-0.3,1.5c0,0.8,0.2,1.4,0.6,2s1,1.1,1.7,1.5s1.5,0.8,2.4,1.2c0.9,0.4,1.8,0.8,2.7,1.2
		c0.9,0.4,1.8,0.9,2.7,1.5s1.7,1.2,2.4,2c0.7,0.8,1.3,1.7,1.7,2.7C294.4,64.2,294.6,65.5,294.6,66.8z"/>
	<path class="st2" d="M331.2,59.5c0,2.9-0.4,5.4-1.1,7.7c-0.7,2.3-1.8,4.2-3.2,5.8c-1.4,1.6-3.2,2.8-5.2,3.6
		c-2.1,0.8-4.5,1.2-7.2,1.2s-5.1-0.4-7.1-1.1s-3.7-1.8-5-3.2c-1.3-1.4-2.3-3.3-3-5.5s-1-4.9-1-7.9c0-2.8,0.4-5.3,1.1-7.6
		c0.7-2.2,1.8-4.1,3.2-5.7c1.4-1.6,3.2-2.8,5.2-3.6c2.1-0.8,4.5-1.3,7.2-1.3c2.6,0,4.9,0.3,7,1s3.7,1.8,5,3.2s2.4,3.3,3.1,5.5
		C330.8,53.9,331.2,56.5,331.2,59.5z M323.8,59.9c0-1.8-0.1-3.5-0.4-5s-0.8-2.8-1.5-3.8s-1.6-1.9-2.7-2.5s-2.6-0.9-4.3-0.9
		c-1.7,0-3.2,0.3-4.3,1c-1.2,0.7-2.1,1.5-2.8,2.6c-0.7,1.1-1.2,2.4-1.5,3.8c-0.3,1.5-0.4,3-0.4,4.6c0,1.9,0.1,3.6,0.4,5.1
		s0.8,2.8,1.4,3.9c0.7,1.1,1.6,1.9,2.7,2.5s2.6,0.8,4.3,0.8c1.7,0,3.2-0.3,4.3-1c1.2-0.6,2.1-1.5,2.8-2.6c0.7-1.1,1.2-2.4,1.5-3.9
		C323.6,63.1,323.8,61.5,323.8,59.9z"/>
	<path class="st2" d="M362.8,76.3c0,0.2,0,0.4-0.1,0.5s-0.2,0.2-0.5,0.3s-0.7,0.2-1.2,0.2s-1.2,0.1-2.1,0.1c-0.8,0-1.3,0-1.8-0.1
		c-0.4,0-0.8-0.1-1.1-0.2c-0.3-0.1-0.4-0.2-0.6-0.4c-0.1-0.2-0.2-0.3-0.3-0.5l-3.1-7.7c-0.4-0.9-0.7-1.7-1.1-2.3
		c-0.4-0.7-0.8-1.2-1.2-1.7c-0.4-0.5-0.9-0.8-1.5-1s-1.2-0.3-2-0.3H344v13.2c0,0.2-0.1,0.3-0.2,0.5c-0.1,0.1-0.3,0.3-0.6,0.3
		c-0.3,0.1-0.6,0.2-1.1,0.2c-0.4,0.1-1,0.1-1.7,0.1s-1.2,0-1.7-0.1s-0.8-0.1-1.1-0.2c-0.3-0.1-0.5-0.2-0.6-0.3s-0.2-0.3-0.2-0.5
		V44.8c0-0.8,0.2-1.4,0.6-1.7s0.9-0.5,1.5-0.5h9c0.9,0,1.7,0,2.2,0.1s1.1,0.1,1.6,0.1c1.4,0.2,2.6,0.5,3.8,1
		c1.1,0.5,2.1,1.1,2.8,1.9s1.4,1.7,1.8,2.8c0.4,1.1,0.6,2.3,0.6,3.7c0,1.2-0.1,2.2-0.4,3.2s-0.7,1.8-1.3,2.6c-0.6,0.8-1.3,1.4-2.1,2
		c-0.8,0.6-1.8,1-2.9,1.3c0.5,0.2,1,0.6,1.5,0.9s0.9,0.8,1.3,1.3s0.8,1.1,1.1,1.7s0.7,1.4,1,2.2l2.9,6.8c0.3,0.7,0.4,1.2,0.5,1.5
		S362.8,76.2,362.8,76.3z M353.7,52.8c0-1.1-0.3-2.1-0.8-2.9s-1.4-1.3-2.5-1.7c-0.4-0.1-0.8-0.2-1.2-0.2c-0.5-0.1-1.1-0.1-1.9-0.1
		h-3.2v9.8h3.6c1,0,1.9-0.1,2.6-0.4c0.8-0.2,1.4-0.6,1.9-1s0.9-1,1.1-1.6S353.7,53.6,353.7,52.8z"/>
	<path class="st2" d="M388.5,74.5c0,0.5,0,1-0.1,1.3c0,0.3-0.1,0.6-0.2,0.8c-0.1,0.2-0.2,0.4-0.3,0.5c-0.1,0.1-0.3,0.1-0.4,0.1
		h-17.4c-0.6,0-1.1-0.2-1.5-0.5S368,75.8,368,75V44.8c0-0.8,0.2-1.4,0.6-1.7s0.9-0.5,1.5-0.5h17.3c0.2,0,0.3,0,0.4,0.1
		s0.2,0.2,0.3,0.5c0.1,0.2,0.2,0.5,0.2,0.9c0,0.3,0.1,0.8,0.1,1.3s0,0.9-0.1,1.3s-0.1,0.6-0.2,0.8s-0.2,0.4-0.3,0.5
		c-0.1,0.1-0.3,0.1-0.4,0.1H375v8.5h10.5c0.2,0,0.3,0.1,0.4,0.1c0.1,0.1,0.2,0.2,0.3,0.5s0.2,0.5,0.2,0.8s0.1,0.8,0.1,1.3
		s0,0.9-0.1,1.3c0,0.3-0.1,0.6-0.2,0.8s-0.2,0.4-0.3,0.4c-0.1,0.1-0.3,0.1-0.4,0.1H375v9.8h12.5c0.2,0,0.3,0,0.4,0.1
		s0.2,0.3,0.3,0.5c0.1,0.2,0.2,0.5,0.2,0.8C388.5,73.5,388.5,74,388.5,74.5z"/>
	<path class="st2" d="M414.8,66.8c0,1.8-0.3,3.4-1,4.8s-1.6,2.5-2.8,3.4c-1.2,0.9-2.5,1.6-4.1,2.1s-3.2,0.7-5,0.7
		c-1.2,0-2.3-0.1-3.3-0.3c-1-0.2-1.9-0.4-2.7-0.7c-0.8-0.3-1.4-0.6-2-0.9c-0.5-0.3-0.9-0.6-1.1-0.8s-0.4-0.6-0.5-1s-0.1-1.1-0.1-1.9
		c0-0.6,0-1,0.1-1.4c0-0.4,0.1-0.7,0.2-0.9c0.1-0.2,0.2-0.4,0.3-0.5c0.1-0.1,0.3-0.1,0.5-0.1s0.6,0.1,1.1,0.4s1,0.6,1.8,1
		c0.7,0.4,1.6,0.7,2.6,1s2.1,0.4,3.4,0.4c0.9,0,1.6-0.1,2.3-0.3c0.7-0.2,1.3-0.5,1.7-0.9s0.8-0.8,1.1-1.4c0.2-0.6,0.4-1.2,0.4-1.8
		c0-0.8-0.2-1.5-0.6-2c-0.4-0.6-1-1.1-1.7-1.5s-1.5-0.8-2.3-1.2s-1.8-0.8-2.7-1.2c-0.9-0.4-1.8-0.9-2.7-1.5s-1.7-1.2-2.3-2
		c-0.7-0.8-1.2-1.7-1.7-2.7c-0.4-1-0.6-2.3-0.6-3.7c0-1.7,0.3-3.1,0.9-4.4s1.4-2.3,2.5-3.1s2.3-1.5,3.7-1.9c1.4-0.4,2.9-0.6,4.5-0.6
		c0.8,0,1.6,0.1,2.5,0.2c0.8,0.1,1.6,0.3,2.3,0.5c0.7,0.2,1.3,0.5,1.9,0.7c0.6,0.3,0.9,0.5,1.1,0.7s0.3,0.3,0.4,0.5s0.1,0.3,0.2,0.5
		s0.1,0.5,0.1,0.8c0,0.3,0,0.7,0,1.2s0,1,0,1.3c0,0.4-0.1,0.7-0.1,0.9c-0.1,0.2-0.2,0.4-0.3,0.5c-0.1,0.1-0.3,0.2-0.5,0.2
		s-0.5-0.1-0.9-0.4c-0.4-0.2-1-0.5-1.6-0.8s-1.3-0.6-2.2-0.8c-0.8-0.2-1.7-0.4-2.7-0.4c-0.8,0-1.4,0.1-2,0.3
		c-0.6,0.2-1.1,0.4-1.4,0.8c-0.4,0.3-0.7,0.7-0.9,1.2s-0.3,1-0.3,1.5c0,0.8,0.2,1.4,0.6,2s1,1.1,1.7,1.5s1.5,0.8,2.4,1.2
		c0.9,0.4,1.8,0.8,2.7,1.2c0.9,0.4,1.8,0.9,2.7,1.5c0.9,0.5,1.7,1.2,2.4,2c0.7,0.8,1.3,1.7,1.7,2.7
		C414.5,64.2,414.8,65.5,414.8,66.8z"/>
</g>
<g>
	<path class="st3" d="M51.9,57.2l-5,6.3l0,0l0,0l-4.1-3.1l6-4.6"/>
	<path class="st3" d="M33.5,57.2l5,6.3l0,0l0,0l4.1-3.1l-6-4.6"/>
	<path class="st3" d="M48.6,55.9l13,5.3c1.2,0.5,2.1,1.6,2.5,2.8c0.7,2,1.8,9.2,2.3,14.8"/>
	<path class="st3" d="M18.9,78.8c0.5-5.6,1.7-12.8,2.3-14.8c0.4-1.3,1.3-2.3,2.5-2.8l13.1-5.3"/>
	<path class="st3" d="M57,35.8h13.9c1.9,0,3.4,1.7,3.4,3.8v41"/>
	<path class="st3" d="M11,80.7v-41c0-2.1,1.5-3.8,3.4-3.8h13.9"/>
	<path class="st3" d="M50.1,83.4l-2.4,4h-10l-2.4-4h-0.8H5.2v6.2c0,1.6,1.5,3.5,3.4,3.5h68.1c1.9,0,3.4-2,3.4-3.5v-6.2H51.8H50.1z"
		/>
	<g>
		<path class="st3" d="M31.8,39.6c0-1.1-0.1-3.7-0.1-4.5c0-3,0.8-9.1,6.3-9.1c1.7,0,1.3-1.2,4.6-1.2c10.3,0,11.2,7,11.2,10.3
			c-0.1,0.8-0.1,3.3-0.1,4.6"/>
		<g>
			<path class="st3" d="M48.1,51.6c1.2-1.2,2.4-2.6,3-3.8l0.8-2.3c0.1-0.2,0.2-0.4,0.4-0.6c1.6-1.5,2.6-4.7,0.9-5.6
				c0,0-0.7,0.4-1.3-0.4c-0.3-0.4-0.7-1.1-0.9-2c0-0.2-0.2-0.3-0.4-0.3c-6.6,1-11.8-2.5-13.4-3.8c-0.1-0.1-0.3-0.1-0.5-0.1
				s-0.4,0.2-0.4,0.3c-0.1,0.8-0.3,1.6-0.6,2.3c-0.6,1.7-1.3,2.9-2.3,4c-0.6,0.6-1.3,0-1.3,0c-0.1,0.1-0.3,0.2-0.4,0.3
				c-1.2,1.1-0.2,4,1.2,5.3c0.2,0.2,0.3,0.4,0.4,0.6l0.8,2.3c0.6,1.2,1.7,2.6,3,3.8c0.4,0.4,0.9,0.8,1.3,1.1
				c0.8,0.6,1.6,0.8,2.6,0.9c0,0,0.1,0,0.2,0c0.4,0.1,0.8,0.1,1.3,0.1c0.6,0,0.9,0,1.3-0.1c0.1,0,0.2,0,0.2,0c1-0.2,1.8-0.3,2.6-0.9
				C47.3,52.4,47.7,52,48.1,51.6"/>
			<path class="st3" d="M48.1,51.6c0.1,1.6,0.1,3.1,0.4,4.3"/>
			<path class="st3" d="M37.2,51.6c-0.1,1.6-0.1,3-0.4,4.3"/>
		</g>
	</g>
	<polyline class="st3" points="45,62.6 44.1,65.2 45.6,78.8 	"/>
	<polyline class="st3" points="40.3,62.6 41.3,65.2 39.7,78.8 	"/>
	<line class="st3" x1="44.1" y1="65.3" x2="41.3" y2="65.3"/>
</g>
</svg>
