<?xml version="1.0" encoding="utf-8"?>
<!-- Generator: Adobe Illustrator 24.0.0, SVG Export Plug-In . SVG Version: 6.00 Build 0)  -->
<svg version="1.1" id="Layer_1" xmlns="http://www.w3.org/2000/svg" xmlns:xlink="http://www.w3.org/1999/xlink" x="0px" y="0px"
	 viewBox="0 0 167.5 161.1" style="enable-background:new 0 0 167.5 161.1;" xml:space="preserve">
<style type="text/css">
	.st0{fill:#FFFFFF;}
	.st1{fill:none;stroke:#343433;stroke-width:3.6;stroke-linecap:round;stroke-linejoin:round;stroke-miterlimit:10;}
</style>
<circle class="st0" cx="84.4" cy="79.5" r="74.3"/>
<g>
	<line class="st1" x1="135.6" y1="88.2" x2="135.6" y2="75.4"/>
	<path class="st1" d="M135.2,88.5c0.1-0.2,0.2-0.3,0.4-0.3c0.2,0,0.3,0.1,0.4,0.3l4.6,12.1c0.2,1-0.2,2.1-0.8,2.1h-8.4
		c-0.6,0-1-1.1-0.8-2.1L135.2,88.5z"/>
	<path class="st1" d="M83.4,91.5l50.2-15.8c2.7-0.9,2.7-3.6,0-4.5L83.4,55.5c-0.9-0.3-2-0.3-3,0L30.2,71.2c-2.7,0.9-2.7,3.6,0,4.5
		l50.2,15.8C81.3,91.8,82.4,91.8,83.4,91.5z"/>
	<path class="st1" d="M111.3,82.7c0,5.1,0,10.1,0,15.2c0,0.4,0,0.9,0,1.3c0,0-0.1,0-0.1,0c-3.5,1.3-7.1,2.3-10.7,3.1h0h0
		c-12.6,2.8-25.7,2.7-38.3-0.3c-3.2-0.8-6.4-1.7-9.6-2.9c0,0-0.1,0-0.1,0c0-0.4,0-0.9,0-1.3c0,0,0,0,0-0.1c0-5.1,0-10.1,0-15.2"/>
</g>
</svg>
